<?xml version="1.0" encoding="utf-8"?>
<!-- Generator: Adobe Illustrator 24.2.3, SVG Export Plug-In . SVG Version: 6.00 Build 0)  -->
<svg version="1.1" id="Layer_1" xmlns="http://www.w3.org/2000/svg" xmlns:xlink="http://www.w3.org/1999/xlink" x="0px" y="0px"
	 viewBox="0 0 282.6 216" style="enable-background:new 0 0 282.6 216;" xml:space="preserve">
<style type="text/css">
	.st0{fill:#F2F9EF;}
	.st1{fill:#F6FAF3;}
</style>
<g>
	<path class="st0" d="M114.7,199.8c0-2,0-3.9,0-5.9c0-0.7-0.3-1.6,0.5-1.9c0.9-0.3,2.3-0.5,2.8,0.2c0.8,1.2,1.1,0.4,1.7,0.1
		c2.3-1.1,4.6-1.1,6.6,0.7c0.7,0.6,1.1,0.8,1.9,0.1c1.8-1.7,4-2,6.2-1c2.4,1.1,3.2,3.2,3.3,5.7c0.1,2.9,0,5.9,0.1,8.8
		c0.1,2-1.4,1.5-2.5,1.6c-1.2,0.1-1.8-0.2-1.8-1.6c0.1-2.7,0.1-5.3,0-8c-0.1-2.2-1-3.3-2.7-3.2s-2.6,1.1-2.6,3.4
		c0,2.5-0.1,5.1,0,7.6c0.1,1.8-0.8,1.8-2.1,1.9c-1.5,0.1-2.2-0.3-2.1-1.9c0.1-2.5,0.1-5,0-7.6c0-1.2-0.3-2.4-1.4-3.1
		c-1.8-1-3.8,0.2-3.9,2.4c-0.1,2.9-0.1,5.7,0,8.6c0,1.2-0.4,1.7-1.6,1.6c-1.1-0.1-2.6,0.6-2.6-1.4
		C114.7,204.4,114.7,202.1,114.7,199.8L114.7,199.8z"/>
	<path class="st0" d="M46.7,197.2c0-3,0-6,0-9c0-1.3,0.3-1.9,1.8-1.8c2.7,0.2,5.4-0.3,8.1,0.6c4.8,1.5,7.8,6.3,7.2,11.7
		c-0.6,5.4-4.4,9.2-9.5,9.5c-1.9,0.1-3.8,0-5.7,0.1c-1.5,0.1-2-0.4-2-1.9C46.7,203.3,46.6,200.2,46.7,197.2
		C46.6,197.2,46.7,197.2,46.7,197.2z M50.7,197.3c0,1.9,0,3.8,0,5.7c0,0.5-0.1,1,0.7,1.2c2.8,0.7,6-0.7,7.4-3.2
		c1.3-2.5,1.3-5.2-0.1-7.6c-1.4-2.4-3.8-3.1-6.5-3.1c-1.2,0-1.6,0.3-1.6,1.5C50.8,193.7,50.7,195.5,50.7,197.3z"/>
	<path class="st0" d="M147.3,197c0-3,0.1-6,0-9.1c0-1.4,0.7-1.7,1.8-1.6c1,0.1,2.4-0.4,2.4,1.5c0,1.8,0,3.6,0,5.5
		c0,0.8-0.3,1.8,0.9,2c1,0.2,1.9,0,2.5-1.1c1.2-2.2,2.5-4.4,3.8-6.5c0.6-1.1,3.8-1.9,4.8-1.2c0.7,0.5,0.2,1-0.1,1.4
		c-1.6,2.6-3.2,5.3-4.9,7.8c-0.6,0.9-0.5,1.5,0.1,2.4c1.8,2.7,3.4,5.6,5.3,8.3c0.9,1.4,0.5,1.6-0.9,1.7c-2.1,0.1-3.5-0.3-4.4-2.5
		c-0.9-2.1-2.4-3.9-3.5-6c-0.6-1.1-1.6-1.3-2.7-1.1c-1.3,0.2-0.8,1.3-0.9,2c-0.1,2-0.1,3.9,0,5.9c0.1,1.9-1.2,1.5-2.2,1.6
		c-1.2,0.1-2,0-1.9-1.6C147.4,203.4,147.3,200.2,147.3,197z"/>
	<path class="st0" d="M107.2,206.3c-0.9,0.8-1.7,1.5-2.7,1.9c-3.4,1.2-6.6-0.2-7.6-3.4c-0.9-2.8,1.2-5.9,4.6-6.6
		c1.4-0.3,2.8-0.5,4.1-0.7c0.4-0.1,0.9,0.1,1-0.5c0.1-0.5-0.3-0.8-0.7-1c-1.5-0.8-3-0.8-4.5,0.1c-0.8,0.5-3.4-0.2-3.8-1.1
		c-0.3-0.5,0.1-0.7,0.3-1.1c1.6-2.1,5.2-3.1,8.3-2.2c2.8,0.8,4.6,2.6,4.8,5.5c0.2,3.3,0.1,6.6,0.2,9.9c0,1.1-0.7,1-1.4,1.1
		C107.9,208.3,107.8,208.2,107.2,206.3z M102.9,204.8c1.6-0.1,2.8-0.7,3.6-2.1c0.3-0.5,0.5-1.1,0.3-1.6c-0.3-0.7-1-0.2-1.5-0.2
		c-1,0.2-2.1,0.4-3,0.7c-0.8,0.3-1.6,0.8-1.4,1.8C101,204.5,101.9,204.8,102.9,204.8z"/>
	<path class="st0" d="M88.9,201.3c-1.5,0-2.9,0-4.4,0c-1,0-1.2,0.5-0.9,1.3c0.6,2,3.5,2.7,5.5,1.3c1.1-0.7,3.5-0.4,4.3,0.5
		c0.6,0.7,0,1-0.3,1.4c-1.8,2.3-5.3,3.4-8.4,2.5c-3.2-0.9-5.1-3.1-5.7-6.3c-0.8-5,1.1-8.9,5.1-10.1c6.2-1.8,10.4,1.9,10.7,7.9
		c0.1,1.1-0.4,1.5-1.5,1.5C91.9,201.2,90.4,201.3,88.9,201.3z M86.8,198L86.8,198c0.3,0,0.6,0.1,0.8,0c0.8-0.3,2.2,0.7,2.2-0.7
		c0-1.2-1.2-1.8-2.4-1.8c-0.8,0-1.6-0.1-2.2,0.3c-0.6,0.4-1.5,0.9-1.3,1.7c0.2,1,1.2,0.3,1.8,0.5C85.9,198.1,86.4,198,86.8,198z"/>
	<path class="st0" d="M175.2,201.3c-1.5,0-3.1,0-4.6,0c-1,0-1.2,0.4-0.8,1.3c0.9,2.1,3.4,2.7,5.4,1.3c1.1-0.8,3.7-0.4,4.4,0.6
		c0.5,0.8-0.2,1.2-0.6,1.6c-2.1,2.4-4.9,3-7.8,2.4c-3-0.6-5.1-2.6-5.8-5.6c-0.9-3.5-0.4-6.8,2.2-9.3c2.5-2.4,5.7-2.6,8.8-1.3
		c2.8,1.1,4.8,4.8,4.5,7.9c-0.1,1-0.5,1.3-1.5,1.2C178,201.2,176.6,201.3,175.2,201.3z M173.1,198c0.6,0,1.1,0,1.7,0
		c0.5,0,1.1,0.3,1.3-0.3c0.3-0.6-0.3-1-0.7-1.4c-1.1-1.2-2.6-1-3.9-0.6c-0.8,0.2-1.7,0.9-1.5,1.8c0.2,0.9,1.2,0.3,1.8,0.5
		C172.2,198.1,172.7,198,173.1,198z"/>
	<path class="st0" d="M206.3,206.4c-1.3,1.1-2.6,2.1-4.4,2.2c-3.1,0.2-5.6-1.6-6-4.4c-0.4-2.8,1.5-5.4,4.5-6.1
		c1.4-0.3,2.9-0.4,4.3-0.7c0.3-0.1,0.8-0.2,0.9-0.4c0.2-0.5-0.2-0.8-0.5-1c-1.4-0.9-2.9-0.9-4.3-0.1c-1,0.6-3.4,0.1-4-0.9
		c-0.5-0.8,0.2-1.2,0.6-1.6c2.6-2.4,5.7-2.4,8.8-1.3c2.9,1,3.8,3.4,3.9,6.1c0.1,2.5,0.1,5,0,7.6c0,0.9,0.5,2.1-1,2.3
		C207.6,208.4,207,208.1,206.3,206.4z M202.1,204.7c1.6-0.1,2.9-0.8,3.7-2.3c0.2-0.4,0.4-0.9,0.1-1.4c-0.3-0.6-0.9-0.3-1.3-0.2
		c-1,0.2-2.1,0.4-3,0.8c-0.8,0.3-1.8,0.7-1.6,1.9C200.2,204.5,201.1,204.8,202.1,204.7z"/>
	<path class="st1" d="M232,205.9c-2.5,2.1-4.7,3.2-7.3,2.4c-2.4-0.7-3.7-2.7-3.7-5.2c0.1-2.4,1.8-4.4,4.4-4.9
		c1.4-0.3,2.8-0.8,4.4-0.7c0.4,0,0.9,0.1,1.1-0.4c0.2-0.6-0.3-1-0.7-1.2c-1.4-0.7-3-0.9-4.2,0c-1.8,1.4-2.7-0.5-3.9-0.8
		c-0.5-0.1-0.1-0.8,0.2-1.2c1.5-2.1,5.4-3.1,8.5-2.1c2.8,0.9,4.4,2.9,4.5,5.9c0,2.8,0,5.6,0,8.4c0,0.8,0.5,2-1.1,2
		C233,208.1,231.4,208.8,232,205.9z M227.3,204.8c1.6-0.1,2.9-0.8,3.7-2.3c0.2-0.4,0.5-0.9,0.2-1.4c-0.4-0.6-1-0.3-1.5-0.2
		c-1,0.2-2.1,0.4-3,0.7c-0.8,0.3-1.9,0.7-1.5,1.9C225.4,204.6,226.2,204.8,227.3,204.8z"/>
	<path class="st0" d="M184,200c0-2.1,0-4.2,0-6.3c0-0.7-0.3-1.6,0.7-1.7c0.9-0.2,2.2-0.6,2.7,0.4c0.7,1.1,1,0.5,1.6,0.1
		c0.9-0.6,1.9-0.9,3-0.9c2.5,0,3.1,0.8,2.6,3.3c-0.2,0.9-0.7,0.6-1.2,0.6c-4.4,0-5.2,0.8-5.3,5.2c0,2-0.1,3.9,0,5.9
		c0.1,1.8-1,1.5-2,1.5c-1.1,0-2.3,0.3-2.2-1.6C184.1,204.4,184,202.2,184,200L184,200z"/>
	<path class="st0" d="M218,197c0,3.1-0.1,6.3,0,9.4c0.1,1.7-0.9,1.7-2.1,1.7c-1.3,0-2.1-0.1-2.1-1.8c0.1-6.2,0.1-12.3,0-18.5
		c0-1.7,0.8-1.9,2.2-1.9s2.1,0.2,2,1.8C217.9,190.9,218,194,218,197z"/>
	<path class="st1" d="M67,200c0-2.1,0-4.2,0-6.3c0-0.6-0.3-1.6,0.7-1.7c0.9-0.1,2.1-0.7,2.6,0.5c0.5,1,0.7,0.7,1.3,0.2
		c1.1-0.9,2.3-1.1,3.7-1.2c1.8,0,2.3,0.7,2.2,2.4c-0.1,1.3-0.3,1.6-1.7,1.6c-3.7-0.2-4.8,1.1-4.9,4.8c0,2.2-0.1,4.4,0,6.5
		c0,1.5-0.8,1.4-1.8,1.3c-0.9-0.1-2.2,0.5-2.2-1.3C67.1,204.5,67,202.3,67,200z"/>
	<g>
		<path class="st1" d="M70.7,114.6c0,4.6,2.8,10,7.7,14.5c10.3,9.5,18.8,20.4,25.1,32.9c0.9,1.7,1.7,3.5,2.6,5.3
			c0.7,1.2,0.1,1.3-1,1.4c-3.1,0.4-5-0.4-6.5-3.7c-6.1-12.6-15.1-23.1-25.1-32.8C59,118.3,63.4,94.7,81.8,87
			c8.9-3.7,17.4-2.1,25,3.5c6.4,4.7,11.7,10.7,16.9,16.7c12.8,14.9,22.5,31.6,29.3,50c1.2,3.3,2.5,6.7,3.4,10.1c0.3,1,0.2,1.5-1,1.3
			c-0.1,0-0.3,0-0.4,0c-4,0.1-4,0.1-5.2-3.7c-8.8-26.1-23-48.8-43.5-67.5c-6-5.4-12.7-8.1-20.8-5.6C76.6,94.7,70.4,103.4,70.7,114.6
			z"/>
		<path class="st1" d="M127.2,9.3c1.8-0.4,3.6-0.1,5.4-0.2c1,0,1,0.9,1.2,1.5c4.3,10.2,9.5,19.9,15.8,29c8.3,12,17.5,23.2,29.2,31.9
			c11.8,8.8,27.8,7.6,38.3-3.6c7.1-7.5,9.9-16.5,8.3-26.7c-1.1-6.8-4.1-12.8-9-17.7c-4.3-4.4-8.9-8.6-12.7-13.4
			c-0.2-0.2-0.3-0.4-0.7-1c2.5,0,4.8,0,7.1,0c0.3,0,0.7,0.3,0.9,0.5c3.9,5.1,9.2,8.9,13.1,13.9c14.1,18,7.6,45.9-13,55.9
			C197.5,86,182,83.3,171,72.9c-10-9.5-19.2-19.6-26.9-31.1C137.4,31.7,131.7,20.8,127.2,9.3z"/>
		<path class="st1" d="M96,168.4c-0.3,0.1-0.4,0.2-0.4,0.2c-4,0.7-6.5-0.4-8.6-4.4c-5.5-10.3-13.7-18.5-21.8-26.7
			c-11.3-11.4-12.8-29.8-5-43.4c5.3-9.3,13-15.5,23.4-17.8c12-2.7,22.6,0.5,31.7,8.7c9.2,8.3,17.5,17.5,24.7,27.6
			c1.6,2.3,0.9,5,1.5,7.5c0.5,1.9,1.1,3.9,0.7,6c-0.1,0.3,0.1,0.7,0.5,0.8c0.2,0,0.4-0.1,0.5-0.2c0.2-0.3,0.1-0.8-0.2-0.9
			c-3.2-1.1-3.9-4.3-5.5-6.6c-7.7-11-16.3-21.1-26.4-29.8c-8.6-7.5-18.7-10.2-29.7-6.3C71.2,86.8,64.5,94.2,62,104.8
			c-3.1,13,1.3,23.8,10.9,32.7c9.1,8.4,16.5,18.2,22.2,29.2C95.6,167.2,95.8,167.8,96,168.4z"/>
		<path class="st1" d="M138.4,104.2c-6.7-8.5-13.9-16.5-22.2-23.4c-9.8-8.2-21-11-33.4-8.3S61.6,82.8,56,94.1
			c-4.2,8.5-5.2,17.6-3.3,26.8c1.7,8.7,5.9,16.1,12.5,22C73,150,79.5,158,84.8,167.1c0.2,0.4,0.3,0.7,0.6,1.2
			c-2.2,0.4-4.2-0.1-6.1-0.3c-0.8-0.1-1.1-0.8-1.5-1.4c-4.8-7.6-10.8-14-17.3-20.2c-7.4-7.1-11.9-15.8-13.6-25.9
			c-2-12.1,0.1-23.4,6.6-33.8c6.1-9.7,14.6-16.6,25.8-19.5c17.3-4.6,32.1,0.4,44.8,12.6c1.2,1.1,2.3,2.3,3.5,3.3
			c5.4,4.2,7.2,10.5,9.6,16.4C137.7,101.1,138.8,102.5,138.4,104.2L138.4,104.2z"/>
		<path class="st1" d="M73.6,167.5c-2.9-0.8-5.3-1.4-7.6-2c-0.5-0.1-0.9-0.2-1.3-0.7c-4.7-6.1-10.9-10.7-15.7-16.6
			c-5.6-7-9.2-14.9-11.1-23.7c-1.6-7.3-1.7-14.7-0.5-22C40.3,86.1,48.6,73,63.2,64.1c10.4-6.3,21.7-9.2,33.9-8
			c10.4,1,19.6,5.1,27.8,11.6c1,0.8,1.1,1.9,1.4,2.9c0.5,2.1,1.1,4.2,1.6,6.3c0.1,0.4,0.1,0.7-0.4,1c-3.1-3.1-6.4-6-10.1-8.4
			c-19-12.2-44.2-9.6-60,6.5c-11.2,11.3-16.2,25.1-14.9,40.8c1.2,13.7,7.2,25.2,17.3,34.4c4.7,4.3,8.8,9,12.5,14.1
			C72.7,165.9,73,166.5,73.6,167.5z"/>
		<path class="st1" d="M116.7,168.4c-0.3,0.1-0.5,0.2-0.6,0.2c-5.2,0.2-5.3,0.3-7.9-5.3c-6.5-14.1-15.8-26-27-36.6
			c-5.9-5.5-8.6-12.2-6-20.1c3.3-10,15.4-16.3,25.8-8.2c9.2,7.1,16.6,16,23.5,25.4c9.3,12.8,16.2,26.8,21.3,41.6
			c1.1,3.2,1.1,3.1-2.4,3.3c-2,0.1-2.9-0.5-3.5-2.5c-8-23.9-21.5-44.3-40-61.3c-4.7-4.3-9.8-5.2-14.2-2.7
			c-6.4,3.8-7.7,12.1-2.5,17.9c3.8,4.3,8.1,8.1,11.9,12.5c9.1,10.5,16.3,22.2,21.4,35.1C116.6,168,116.6,168.2,116.7,168.4z"/>
		<path class="st1" d="M52.8,160.1c-0.1,0-0.3-0.1-0.4-0.1c-0.4-1-1.3-0.9-2-1.2c-0.6,0-0.9-0.4-1.3-0.8c-0.2-0.3-0.5-0.5-0.8-0.5
			c-0.2-0.1-0.3-0.1-0.5-0.2c-0.3-0.8-0.9-1-1.6-1.1c-6.5-3.2-9.8-9.1-12.7-15.3c-5.8-12.5-7.6-25.7-5.4-39.1
			C32.4,76,46.9,58.4,71.6,49.5c8.6-3.1,17.5-3.9,26.5-3.1c6.7,0.6,13,2.4,19.1,5.3c0.6,0.3,1.2,0.7,1.5,1.4
			c1.2,2.6,2.5,5.3,3.9,8.3c-3.6-2-6.7-3.8-10.1-5.2c-9-3.6-18.4-5.2-28-3.9c-21,2.9-36,14.3-45.4,33.1c-5.7,11.4-7.4,23.6-5.5,36.1
			c0.9,6.1,2.7,12,5.5,17.5c0.1,0.2,0.1,0.5,0.1,0.8c0.3,0.7,0.3,1.6,1.1,2c0.2,0.4,0.4,0.8,0.6,1.2c0,0.5,0.2,0.8,0.6,1
			c0.1,0.1,0.1,0.3,0.2,0.4c0.1,0.7,0.3,1.4,1.2,1.7c0.2,0.3,0.4,0.6,0.5,0.9c0,0.4,0.2,0.6,0.5,0.8c0.1,0.2,0.2,0.3,0.3,0.5
			c0.1,0.5,0.4,0.9,0.9,1.2c0.6,0.4,1.1,0.9,1.3,1.6c0,0.5,0.3,0.8,0.8,0.9l0,0c0,0.4,0.3,0.7,0.7,0.9H48v0.1
			c0.1,0.4,0.3,0.6,0.7,0.7c0.8,0.8,1.7,1.5,2.3,2.6c0.1,0.5,0.4,0.7,0.8,0.8c0.5,0.3,1,0.6,1.3,1.2c0.2,0.2,0.4,0.4,0.6,0.6
			c0.4,0,0.6,0.2,0.6,0.6C54.4,161,53.4,160,52.8,160.1z"/>
		<path class="st1" d="M191.7,9.1c1.9,0,3.8,0,5.8,0c0.8,0,1.2,0.4,1.5,0.9c4.5,6.1,9.9,11.3,15.3,16.6c12.9,12.8,9.8,34.9-6.1,43.7
			c-9.4,5.2-21.6,3.6-30-4c-16.6-14.9-29.5-32.7-38.9-52.9c-0.6-1.3-1.2-2.7-1.8-4.1c1.8-0.5,3.7-0.2,5.4-0.3c0.8,0,1,0.6,1.3,1.2
			c4.7,10.4,10.4,20.1,17.2,29.2c6.5,8.6,13.7,16.7,22,23.5c6.2,5,13.3,6,20.5,2.8c6.9-3,11-8.5,12.3-16.1
			c1.5-8.9-2.1-15.7-8.6-21.5c-6-5.3-11-11.5-15.7-18C191.7,9.9,191.5,9.7,191.7,9.1z"/>
		<path class="st1" d="M115,46.9c-6.3-2.3-12.4-4.1-18.8-4.4C71,41.1,51.3,51.6,36.4,71.3c-6.3,8.4-9.8,18.1-11.6,28.5
			c-2.2,12.9-1.1,25.4,3.2,37.6c0.4,1.1,0.8,2.2,1.1,3.4c-2-1.6-3.3-3.7-4.7-5.7c-1.3-1.9-2.4-3.9-3.7-5.8
			c-2.3-3.5-2.4-7.5-2.6-11.3c-1.2-20.4,4.3-38.8,17.3-54.6C46.1,50,60,41.6,76.7,37.9c9.8-2.2,19.6-2,29.4-0.1
			c1.3,0.3,2.2,1.2,3.1,2.1C111.3,41.9,113.4,43.9,115,46.9z"/>
		<path class="st1" d="M133.3,168.6c-2,0.7-2.8-0.6-3.5-2.6c-6.7-17.9-16.5-34-29.8-47.8c-2.1-2.2-4.4-4.3-6.7-6.4
			c-0.7-0.6-1.4-1.5-2.5-1.1c-1.3,0.5-1.6,2-0.5,3.2c1.8,1.9,3.7,3.6,5.5,5.5c13.5,13.6,23.5,29.4,30.4,47.2c0.6,1.5,0.5,2.1-1.4,2
			c-3.9-0.1-3.9-0.1-5.5-3.9c-7-16.5-16.9-31-29.8-43.4c-2.2-2.1-4.7-4-5.5-7.2c-0.8-3.1,0.5-6.5,3.3-8.4c2.7-1.8,5.6-1.8,8.3,0.5
			c6.8,5.6,12.8,12.1,18.2,19.1c7.1,9.3,13.2,19.1,17.9,29.8c1.7,3.9,3.2,7.9,4.7,11.9c0.5,1.3,0.2,1.9-1.3,1.7
			C134.7,168.6,134.2,168.6,133.3,168.6z"/>
		<path class="st1" d="M180.1,9.1c2.1,0,4,0,5.8,0c1.3,0,1.6,1.3,2.1,2.1c5.1,7.4,10.9,14.2,17.5,20.3c3.5,3.2,6,6.9,7,11.7
			c1.7,7.8-3.2,17-10.8,19.6c-6.6,2.3-12.5,0.6-17.5-3.9c-14.8-13.4-26.6-29.1-35.3-47c-0.4-0.7-0.6-1.5-1-2.4
			c1.9-0.4,3.7-0.2,5.5-0.2c1.1,0,1.2,1.1,1.5,1.8c8.2,16.6,19.4,31.1,33.2,43.4c6.4,5.7,14.6,4.1,18.2-3.6
			c2.2-4.8,0.6-9.1-2.7-12.8c-4-4.5-8.6-8.4-12.4-13.1c-3.8-4.6-7.4-9.4-10.6-14.6C180.4,9.9,180.3,9.6,180.1,9.1z"/>
		<path class="st1" d="M14,113.1c-2.1-6-3.8-12.2-3.7-18.5c0.1-4,1.7-7.8,3-11.5c6-16.9,16.3-30.7,30.8-41.2
			c9.4-6.8,19.7-11.3,31-13.7c7.6-1.6,15.3-1.8,23-1.3c2.2,0.1,3.7,0.8,4.5,3.2c1.2,3.6,1.4,3.5-2.4,3.1C77,30.5,57,37.8,39.7,53.2
			C26.5,65,18.8,80,15.5,97.3c-0.9,4.6-1.3,9.3-1.4,14C14.1,111.9,14.1,112.5,14,113.1z"/>
		<path class="st1" d="M158.2,9.1c2,0,3.8,0.1,5.5,0c1-0.1,1.3,0.6,1.7,1.3c4.8,9,10.5,17.5,17.3,25.2c3.5,3.9,7.2,7.6,11,11.2
			c0.3,0.3,0.8,0.6,1.2,0.8c0.8,0.3,1.6,0.4,2.2-0.5c0.5-0.8,0.6-1.5-0.1-2.3c-2.7-2.7-5.5-5.4-8.2-8.2
			c-7.5-7.9-13.9-16.6-19.3-26.1c-0.7-1.3-0.4-1.5,0.9-1.5c4.9-0.1,4.8-0.1,7.5,4.1c6,9.6,13.3,18.1,21.6,25.9
			c2.5,2.3,4.5,5,3.7,8.6c-1.3,6.2-7.9,8.3-12.7,4c-4.9-4.3-9.5-8.9-13.7-13.9c-6.9-8.3-12.8-17.2-17.8-26.6
			C158.8,10.5,158.6,9.9,158.2,9.1z"/>
		<path class="st1" d="M10.5,80c0.8-8.2,2.9-16,6.1-23.4c1.1-2.6,3-4.5,4.8-6.6c10.5-12.3,23-21.7,38.2-27.4
			c7-2.7,14.3-4.4,21.8-5.2c4.1-0.5,8.3-0.4,12.4-0.6c1.9-0.1,3.1,0.7,3.6,2.4c0.4,1.4,1.5,2.5,1.6,3.7C56.7,22.1,27.1,40.8,10.5,80
			z"/>
		<path class="st1" d="M195.3,161c-5.7,0.2-11.8-0.5-17.8-1.5c-2.4-0.4-4.4-3.5-3.8-5.8c0.2-1,0.9-0.7,1.5-0.6
			c9.6,2.3,19.4,2.7,29.2,1.8c13.2-1.2,25.8-4.8,37.6-10.9c2.2-1.1,4.3-2.3,6.4-3.5c0.9-0.5,1.4-0.5,2,0.4c2.9,3.8,3,3.8-1.2,6.1
			c-10.2,5.6-21,9.8-32.5,12C209.9,160.3,202.9,161.1,195.3,161z"/>
		<path class="st1" d="M194.8,168.7c-7.2,0-14.3,0-21.5,0c-1.4,0-2-0.1-1.5-1.8c1.1-4.2,1-4.2,5.3-3.5c12.6,2.1,25.3,2.2,37.9-0.1
			c13.8-2.5,26.9-7.4,38.9-14.9c1.3-0.8,1.9-0.7,2.9,0.6c2.5,3.5,2.6,3.5-1.2,5.7c-8.6,5-17.8,8.5-27.4,11.4
			c-10.5,3.3-21.1,2.2-31.7,2.5C195.9,168.7,195.4,168.7,194.8,168.7z"/>
		<path class="st1" d="M172.8,142.7c8.3,2,16.6,3.2,25,3.1c14-0.3,27.2-3.8,39.7-10c1.7-0.9,3.5-1.8,5.2-2.8c1-0.6,1.5-0.3,2.1,0.5
			c2.8,3.5,2.8,3.4-1.2,5.6c-8.2,4.6-17,7.9-26.1,9.9c-11,2.4-22.2,2.9-33.4,1.6c-2.6-0.3-5.2-0.9-7.9-1.3c-0.6-0.1-1.3-0.1-1.2-1
			C175.3,146,174.3,144.3,172.8,142.7z"/>
		<path class="st1" d="M196,141.8c-5.6-0.2-12.1-0.7-18.5-2.1c-1.5-0.3-2.4-0.8-1.3-2.5c0.7-1.1-0.2-3,1.3-3.5
			c1.1-0.3,2.4,0.3,3.7,0.5c14.7,2.5,29.2,1.4,43.2-3.6c4.1-1.5,8.2-3.2,12-5.4c1.1-0.6,1.7-0.5,2.5,0.4c3,3.6,2.9,3.7-1.2,5.8
			c-7.3,3.7-14.8,6.5-22.8,8.3C208.9,141,202.9,141.5,196,141.8z"/>
		<path class="st1" d="M157.4,64.4c5.3,5.4,10.3,11.1,16.5,15.4c8.5,5.9,17.8,8.1,28,6.6c6.1-0.9,11.5-3.2,16.5-6.7
			c0.6-0.4,1.1-1,1.8-0.3l0,0c-2.6,2.5-4.4,5.5-6.5,8.4c-1.2,1.7-2.6,2.5-4.4,3.1c-8.6,2.6-17.2,2.7-25.8,0.1
			c-7.7-2.3-14.3-6.6-20-12.2c-2-1.9-4-3.8-5.9-5.7c-0.4-0.4-1.3-0.8-0.5-1.5c1.7-1.6,0.7-3.3,0.4-5.1c-0.1-0.3-0.2-0.6-0.4-0.9
			c-0.3-0.3-0.3-0.6-0.2-0.9C157,64.6,157.2,64.5,157.4,64.4z"/>
		<path class="st1" d="M195.4,102.7c-12.5-0.2-23.5-4.3-33.3-12.1c-1.2-0.9-1.4-1.7-1.1-3.2c1.1-4.5,0.9-4.5,4.4-1.7
			c13.8,10.8,29.1,13.8,45.8,8.3c1.9-0.6,3-0.4,4.1,1.3c1.9,2.8,2,2.7-1.1,3.9C209.3,101.2,200.9,102.7,195.4,102.7z"/>
		<path class="st1" d="M196.5,131.9c-5.7-0.1-11.5-0.7-17.3-1.8c-1.3-0.3-1.3-0.9-0.8-1.8c0.3-0.5,0.8-0.9,0.9-1.4
			c0.1-2.7,1.3-2.7,3.6-2.2c6.6,1.3,13.2,1.6,19.9,0.9c9.3-0.9,18.1-3.5,26.4-7.6c0.9-0.4,1.9-1.6,2.8-0.8c1.2,1.1,2.2,2.5,3.1,3.9
			c0.3,0.4-0.3,0.8-0.8,1.1c-6.8,3.6-14,6.3-21.5,8C207.5,131.2,202.1,131.7,196.5,131.9z"/>
		<path class="st1" d="M196.1,122.2c-7.3-0.2-14.3-1.1-21.1-3.2c-1-0.3-1.4-0.7-1.2-1.7c0.3-1.4-0.1-3.4,0.8-4.3
			c1-1.1,2.6,0.4,3.9,0.7c8.3,2.2,16.7,3.2,25.4,2c7-0.9,13.7-2.8,20-6c1.7-0.9,2.5-0.5,3.5,0.9c2.2,2.9,2.2,2.9-1.1,4.5
			C216.7,119.9,206.5,121.9,196.1,122.2z"/>
		<path class="st1" d="M216.2,9.1c2.4,0,4.8,0,7.2,0c0.4,0,0.8,0.3,1.1,0.6C236.3,20.5,242,33.9,240.9,50c-0.1,1.5-1.1,2.3-1.9,3.4
			c-2,2.7-4,5.4-6,8.1c-0.1,0.1-0.3,0.1-0.5,0.1c7.1-21.4,0.3-38.4-17-52C215.8,9.4,216,9.3,216.2,9.1z"/>
		<path class="st1" d="M195.2,112.4c-6.1-0.1-12.7-1.1-19-3.2c-1.5-0.5-1.9-1.2-1.7-2.6c0-0.3,0.1-0.7,0.1-1
			c0.2-3.3,0.3-3.3,3.2-2.3c6.8,2.4,13.9,3.5,21.1,3.1c6.5-0.3,12.8-1.5,18.7-4.3c2-0.9,2.9-0.6,4.1,1.1c2.1,3.1,2,2.4-1,3.7
			C212.7,110.5,204.4,112.3,195.2,112.4z"/>
		<path class="st0" d="M28.7,36.8c6.8-8.2,14.9-14.8,24.4-19.6c6.5-3.3,13.4-5.6,20.6-7C80.1,9,86.5,9.1,92.9,9
			c2.7,0,0.9,1.9,1.3,2.8c0.5,1.3-0.7,1-1.4,1c-6.4-0.2-12.8,0.3-19,1.5c-9.2,1.9-17.9,5.2-26.3,9.5c-6.3,3.3-11.8,7.6-17.3,12.1
			c-0.4,0.3-0.8,0.6-1.2,0.9C29,36.9,28.8,36.8,28.7,36.8z"/>
		<path class="st1" d="M245.3,44.9c-1.1-13.8-6.3-25.6-16-35.9c2.8,0,5.1,0,7.3,0c0.7,0,0.9,0.5,1.3,0.9c6.6,8,10.4,17.3,12,27.5
			c0.1,0.5,0.2,1-0.1,1.4C248.3,40.9,246.8,42.9,245.3,44.9z"/>
		<path class="st1" d="M138.1,39.5c-1.9-2-3.9-2.5-6.2-1c-0.8,0.5-1.1-0.3-1.4-0.8c-4.9-8.7-9.4-17.6-12.9-27
			c-0.5-1.4-0.2-1.6,1.2-1.7c4.3-0.1,4.2-0.1,5.9,3.9C128.5,22.1,133,30.9,138.1,39.5z"/>
		<path class="st1" d="M123,32.2c-3.8-2-7.5-3.4-9.3-7.4c-0.6-1.4-0.5-2.9-0.4-4.3c0-0.9-0.1-1.5-1.1-1.9c-2.3-1.1-4-3.1-5.9-4.7
			c-1.3-1.1-2.7-2-4.4-2.2c-1.4-0.2-2.6-0.7-2.9-2.5c4.7,0,9.3,0,13.9,0c0.5,0,0.9,0.2,1,0.8c1.8,7.6,5.5,14.5,8.9,21.4
			C122.8,31.4,122.8,31.6,123,32.2z"/>
		<path class="st1" d="M235.1,168.7c8.9-3.6,17.5-7.6,25.4-12.8c0.5-0.3,1-0.6,1.3-0.1c1,1.2,1.9,2.4,2.8,3.7
			c0.5,0.7-0.1,1.1-0.6,1.3c-4.6,2.9-9.2,5.5-14.1,7.8c-0.2,0.1-0.5,0.2-0.8,0.2C244.5,168.7,239.8,168.7,235.1,168.7z"/>
		<path class="st1" d="M241.9,9.1c2.4,0,4.4,0,6.4,0c0.8,0,1.1,0.6,1.4,1.1c3.4,5.2,5.8,10.8,7.6,16.7c0.3,1,0.2,1.8-0.5,2.7
			c-1.2,1.4-2,3.1-3.7,4.6C251.1,24.9,247.4,16.8,241.9,9.1z"/>
		<path class="st1" d="M260.5,24.4c-1.9-5.4-4-10.4-6.8-15.1c2-0.4,3.8-0.2,5.6-0.2c0.8,0,1,0.6,1.3,1.2c1.1,2.4,2.3,4.8,3.3,7.2
			c0.4,0.9,0.5,1.8-0.3,2.7C262.6,21.4,261.7,22.7,260.5,24.4z"/>
		<path class="st0" d="M157.4,64.4c-0.2,0.1-0.3,0.2-0.5,0.3c-0.5-0.7-1.1-1-1.9-0.3c-0.7,0.6-1.6,0.7-2.6,0.5
			c-2.6-0.4-2.7-0.6-2-3.2c0.6-2.1,0-3.4-2-4.2c-1.9-0.8-3.8-1.4-5.5-2.4c-0.9-0.6-1.6-1.3-1.4-2.3c0.2-1,1.3-0.5,1.9-0.7
			c2.7-1.2,4,0.4,5.5,2.3C151.6,57.8,154.5,61.1,157.4,64.4z"/>
		<path class="st0" d="M168.5,168.7c-2.6,0-4.7,0-6.8,0c-0.8,0-1.1-0.3-1.4-1c-1.4-4.4-2.9-8.8-4.2-13.3
			C159.9,159.1,163.8,163.8,168.5,168.7z"/>
		<path class="st0" d="M271.5,168.6c-4.4,0-8.6,0-13.5,0c3.2-1.9,6-3.6,8.7-5.2c0.5-0.3,0.9,0,1.2,0.4
			C269.2,165.3,270.5,166.7,271.5,168.6z"/>
		<path class="st0" d="M264.5,9.2c2.4,0,4.6,0,7.1,0c-1.5,2.1-2.7,4.1-4.5,5.9C266.1,13,265.3,11.2,264.5,9.2z"/>
		<path class="st0" d="M161.3,94.6c1.6,1.1,3,2.1,4.4,3.1c0.2,0.1,0.2,0.3,0.4,0.5C163.2,99.8,161.3,98.5,161.3,94.6z"/>
		<path class="st0" d="M52.8,160.1c0.6-0.1,1.6,0.9,1.7-0.6c1,0.6,1.8,1.4,2.9,2.8C55.5,161.6,54,161.1,52.8,160.1z"/>
		<path class="st0" d="M50.4,158.8c0.7,0.3,1.7,0.2,2,1.2C51.7,159.7,50.9,159.5,50.4,158.8z"/>
		<path class="st0" d="M40.5,142c-0.9-0.4-0.8-1.3-1.1-2C40,140.5,40.2,141.2,40.5,142z"/>
		<path class="st0" d="M46.2,156.3c0.7,0.1,1.4,0.3,1.6,1.1C47.2,157.1,46.7,156.7,46.2,156.3z"/>
		<path class="st0" d="M43,146.2c-0.8-0.3-1-0.9-1.2-1.7C42.3,145.1,42.7,145.7,43,146.2z"/>
		<path class="st0" d="M45.2,149.6c-0.5-0.2-0.8-0.6-0.9-1.2C45,148.6,45.1,149.1,45.2,149.6z"/>
		<path class="st0" d="M53.9,158.9c-0.2-0.2-0.4-0.4-0.6-0.6C53.7,158.3,53.7,158.6,53.9,158.9z"/>
		<path class="st0" d="M157.1,65.7c0.1,0.3,0.2,0.6,0.4,0.9C157.3,66.2,157.2,66,157.1,65.7z"/>
		<path class="st0" d="M48.3,157.6c0.3,0,0.6,0.2,0.8,0.5C48.7,158.1,48.5,157.9,48.3,157.6z"/>
		<path class="st0" d="M52,157.2c-0.5-0.1-0.7-0.3-0.8-0.8C51.6,156.5,51.9,156.8,52,157.2z"/>
		<path class="st0" d="M48.9,153.8c-0.4-0.1-0.6-0.4-0.7-0.7C48.5,153.2,48.8,153.5,48.9,153.8z"/>
		<path class="st0" d="M48.1,153c-0.4-0.1-0.7-0.5-0.7-0.9C47.7,152.3,48,152.5,48.1,153z"/>
		<path class="st0" d="M47.4,152.1c-0.5-0.1-0.8-0.4-0.8-0.9C46.8,151.5,47.1,151.8,47.4,152.1z"/>
		<path class="st0" d="M44.1,147.9c-0.3-0.1-0.5-0.4-0.5-0.8C43.8,147.4,43.9,147.7,44.1,147.9z"/>
		<path class="st0" d="M41.7,144.1c-0.5-0.2-0.6-0.5-0.6-1C41.3,143.5,41.5,143.8,41.7,144.1z"/>
		<path class="st1" d="M220.2,79.4c-0.9-1.1,1.2-0.4,0.7-1.2v-0.1C219.9,78.2,220.3,79,220.2,79.4L220.2,79.4z"/>
		<path class="st1" d="M220.9,78.2h-0.1C220.8,78.2,220.8,78.2,220.9,78.2L220.9,78.2z"/>
		<path class="st1" d="M138.3,104.2c0.1,0,0.1,0,0.2,0C138.4,104.2,138.4,104.2,138.3,104.2C138.4,104.2,138.3,104.2,138.3,104.2z"
			/>
	</g>
</g>
</svg>
